Lecture 17: More on ggplot
…
<img src="Lec17_files/figure-html/unnamed-chunk-13-1.png" style="display: block; margin: auto;" />

---
# Facets
Facets are especially effective for data with many factors.
[General Social Survey 2016](https://rdrr.io/github/kjhealy/socviz/man/gss_sm.html)

```r
# library(socviz)
gss_sm
```

```
## # A tibble: 2,867 x 32
##     year    id ballot       age childs sibs   degree race  sex   region income16
##    <dbl> <dbl> <labelled> <dbl>  <dbl> <labe> <fct>  <fct> <fct> <fct>  <fct>   
##  1  2016     1 1             47      3 2      Bache~ White Male  New E~ $170000~
##  2  2016     2 2             61      0 3      High ~ White Male  New E~ $50000 ~
##  3  2016     3 3             72      2 3      Bache~ White Male  New E~ $75000 ~
##  4  2016     4 1             43      4 3      High ~ White Fema~ New E~ $170000~
##  5  2016     5 3             55      2 2      Gradu~ White Fema~ New E~ $170000~
##  6  2016     6 2             53      2 2      Junio~ White Fema~ New E~ $60000 ~
##  7  2016     7 1             50      2 2      High ~ White Male  New E~ $170000~
##  8  2016     8 3             23      3 6      High ~ Other Fema~ Middl~ $30000 ~
##  9  2016     9 1             45      3 5      High ~ Black Male  Middl~ $60000 ~
## 10  2016    10 3             71      4 1      Junio~ White Male  Middl~ $60000 ~
## # ... with 2,857 more rows, and 21 more variables: relig <fct>, marital <fct>,
## #   padeg <fct>, madeg <fct>, partyid <fct>, polviews <fct>, happy <fct>,
## #   partners <fct>, grass <fct>, zodiac <fct>, pres12 <labelled>,
## #   wtssall <dbl>, income_rc <fct>, agegrp <fct>, ageq <fct>, siblings <fct>,
## #   kids <fct>, religion <fct>, bigregion <fct>, partners_rc <fct>, obama <dbl>
```
…
---
# group_by, summarize
A complicated `group_by`:

```r
(rel_by_region <- gss_sm |>
    group_by(bigregion, religion) |>
    summarize(N = n()) |>
    mutate(freq = N / sum(N),
           pct = round((freq*100), 0)))
```

```
## # A tibble: 24 x 5
## # Groups:   bigregion [4]
##    bigregion religion       N    freq   pct
##    <fct>     <fct>      <int>   <dbl> <dbl>
##  1 Northeast Protestant   158 0.324      32
##  2 Northeast Catholic     162 0.332      33
##  3 Northeast Jewish        27 0.0553      6
##  4 Northeast None         112 0.230      23
##  5 Northeast Other         28 0.0574      6
##  6 Northeast <NA>           1 0.00205     0
##  7 Midwest   Protestant   325 0.468      47
##  8 Midwest   Catholic     172 0.247      25
##  9 Midwest   Jewish         3 0.00432     0
## 10 Midwest   None         157 0.226      23
## # ... with 14 more rows
```
…
