Lecture 18: Tidy Data
…
---
# Case Study
Untidy data from [2014 World Health Organization Global Tuberculosis Report](https://www.who.int/teams/global-tuberculosis-programme/data)

```r
tidyr::who
```

```
## # A tibble: 7,240 x 60
##    country  iso2  iso3   year new_sp_m014 new_sp_m1524 new_sp_m2534 new_sp_m3544
##    <chr>    <chr> <chr> <int>       <int>        <int>        <int>        <int>
##  1 Afghani~ AF    AFG    1980          NA           NA           NA           NA
##  2 Afghani~ AF    AFG    1981          NA           NA           NA           NA
##  3 Afghani~ AF    AFG    1982          NA           NA           NA           NA
##  4 Afghani~ AF    AFG    1983          NA           NA           NA           NA
##  5 Afghani~ AF    AFG    1984          NA           NA           NA           NA
##  6 Afghani~ AF    AFG    1985          NA           NA           NA           NA
##  7 Afghani~ AF    AFG    1986          NA           NA           NA           NA
##  8 Afghani~ AF    AFG    1987          NA           NA           NA           NA
##  9 Afghani~ AF    AFG    1988          NA           NA           NA           NA
## 10 Afghani~ AF    AFG    1989          NA           NA           NA           NA
## # ... with 7,230 more rows, and 52 more variables: new_sp_m4554 <int>,
## #   new_sp_m5564 <int>, new_sp_m65 <int>, new_sp_f014 <int>,
## #   new_sp_f1524 <int>, new_sp_f2534 <int>, new_sp_f3544 <int>,
## #   new_sp_f4554 <int>, new_sp_f5564 <int>, new_sp_f65 <int>,
## #   new_sn_m014 <int>, new_sn_m1524 <int>, new_sn_m2534 <int>,
## #   new_sn_m3544 <int>, new_sn_m4554 <int>, new_sn_m5564 <int>,
## #   new_sn_m65 <int>, new_sn_f014 <int>, new_sn_f1524 <int>, ...
```
…
Good place to start: identify columns that are values and not variables.

Cases appear to be country-years.
Hence `country`, `iso2`, `iso3`, and `year` are variables.

For now, treat all others as values.
---
# Case Study
The other columns range from `new_sp_m014` to `newrel_f65`.
Let's put them in a single column `key`.

```
## # A tibble: 76,046 x 6
##    country     iso2  iso3   year key          cases
##    <chr>       <chr> <chr> <int> <chr>        <int>
##  1 Afghanistan AF    AFG    1997 new_sp_m014      0
##  2 Afghanistan AF    AFG    1997 new_sp_m1524    10
##  3 Afghanistan AF    AFG    1997 new_sp_m2534     6
##  4 Afghanistan AF    AFG    1997 new_sp_m3544     3
##  5 Afghanistan AF    AFG    1997 new_sp_m4554     5
##  6 Afghanistan AF    AFG    1997 new_sp_m5564     2
##  7 Afghanistan AF    AFG    1997 new_sp_m65       0
##  8 Afghanistan AF    AFG    1997 new_sp_f014      5
##  9 Afghanistan AF    AFG    1997 new_sp_f1524    38
## 10 Afghanistan AF    AFG    1997 new_sp_f2534    36
## # ... with 76,036 more rows
```
…
---
# Case Study
Separate `key` according to the data dictionary.

```
## Warning: Expected 3 pieces. Missing pieces filled with `NA` in 2580 rows [243,
## 244, 679, 680, 681, 682, 683, 684, 685, 686, 687, 688, 689, 690, 691, 692, 903,
## 904, 905, 906, ...].
```

```
## # A tibble: 76,046 x 8
##    country     iso2  iso3   year new   type  sexage cases
##    <chr>       <chr> <chr> <int> <chr> <chr> <chr>  <int>
##  1 Afghanistan AF    AFG    1997 new   sp    m014       0
##  2 Afghanistan AF    AFG    1997 new   sp    m1524     10
##  3 Afghanistan AF    AFG    1997 new   sp    m2534      6
##  4 Afghanistan AF    AFG    1997 new   sp    m3544      3
##  5 Afghanistan AF    AFG    1997 new   sp    m4554      5
##  6 Afghanistan AF    AFG    1997 new   sp    m5564      2
##  7 Afghanistan AF    AFG    1997 new   sp    m65        0
##  8 Afghanistan AF    AFG    1997 new   sp    f014       5
##  9 Afghanistan AF    AFG    1997 new   sp    f1524     38
## 10 Afghanistan AF    AFG    1997 new   sp    f2534     36
## # ... with 76,036 more rows
```
…
We have `newrel` instead of `new_rel`.

---
# Case Study
Replace `newrel` with `new_rel`. Then,

```
## # A tibble: 76,046 x 8
##    country     iso2  iso3   year new   type  sexage cases
##    <chr>       <chr> <chr> <int> <chr> <chr> <chr>  <int>
##  1 Afghanistan AF    AFG    1997 new   sp    m014       0
##  2 Afghanistan AF    AFG    1997 new   sp    m1524     10
##  3 Afghanistan AF    AFG    1997 new   sp    m2534      6
##  4 Afghanistan AF    AFG    1997 new   sp    m3544      3
##  5 Afghanistan AF    AFG    1997 new   sp    m4554      5
##  6 Afghanistan AF    AFG    1997 new   sp    m5564      2
##  7 Afghanistan AF    AFG    1997 new   sp    m65        0
##  8 Afghanistan AF    AFG    1997 new   sp    f014       5
##  9 Afghanistan AF    AFG    1997 new   sp    f1524     38
## 10 Afghanistan AF    AFG    1997 new   sp    f2534     36
## # ... with 76,036 more rows
```

---
# Case Study
`new` is constant in this data set. For that matter, let's
also drop `iso2` and `iso3` since we already have `country`.

```
## # A tibble: 76,046 x 5
##    country      year type  sexage cases
##    <chr>       <int> <chr> <chr>  <int>
##  1 Afghanistan  1997 sp    m014       0
##  2 Afghanistan  1997 sp    m1524     10
##  3 Afghanistan  1997 sp    m2534      6
##  4 Afghanistan  1997 sp    m3544      3
##  5 Afghanistan  1997 sp    m4554      5
##  6 Afghanistan  1997 sp    m5564      2
##  7 Afghanistan  1997 sp    m65        0
##  8 Afghanistan  1997 sp    f014       5
##  9 Afghanistan  1997 sp    f1524     38
## 10 Afghanistan  1997 sp    f2534     36
## # ... with 76,036 more rows
```

---
# Case Study
Finally, split `sexage` into two columns, `sex` and `age`.

```
## # A tibble: 76,046 x 6
##    country      year type  sex   age   cases
##    <chr>       <int> <chr> <chr> <chr> <int>
##  1 Afghanistan  1997 sp    m     014       0
##  2 Afghanistan  1997 sp    m     1524     10
##  3 Afghanistan  1997 sp    m     2534      6
##  4 Afghanistan  1997 sp    m     3544      3
##  5 Afghanistan  1997 sp    m     4554      5
##  6 Afghanistan  1997 sp    m     5564      2
##  7 Afghanistan  1997 sp    m     65        0
##  8 Afghanistan  1997 sp    f     014       5
##  9 Afghanistan  1997 sp    f     1524     38
## 10 Afghanistan  1997 sp    f     2534     36
## # ... with 76,036 more rows
```
…
