Lecture 11: Applications of Simulation
…
The idea is, from a provided sample, draw random samples from it *with replacement*.

--

The `flights` tibble contains **all** flights that departed NYC in 2013.

```r
library(nycflights13)
library(tidyverse)
flights
```

```
## # A tibble: 336,776 x 19
##     year month   day dep_time sched_dep_time dep_delay arr_time sched_arr_time
##    <int> <int> <int>    <int>          <int>     <dbl>    <int>          <int>
##  1  2013     1     1      517            515         2      830            819
##  2  2013     1     1      533            529         4      850            830
##  3  2013     1     1      542            540         2      923            850
##  4  2013     1     1      544            545        -1     1004           1022
##  5  2013     1     1      554            600        -6      812            837
##  6  2013     1     1      554            558        -4      740            728
##  7  2013     1     1      555            600        -5      913            854
##  8  2013     1     1      557            600        -3      709            723
##  9  2013     1     1      557            600        -3      838            846
## 10  2013     1     1      558            600        -2      753            745
## # ... with 336,766 more rows, and 11 more variables: arr_delay <dbl>,
## #   carrier <chr>, flight <int>, tailnum <chr>, origin <chr>, dest <chr>,
## #   air_time <dbl>, distance <dbl>, hour <dbl>, minute <dbl>, time_hour <dttm>
```
…
---
# Bootstrap
`dplyr::slice_sample(n = 50)` gave us a random sample of 50 of flights.

```r
flights_smpl
```

```
## # A tibble: 50 x 4
##    dep_time arr_time air_time distance
##       <int>    <int>    <dbl>    <dbl>
##  1      819     1103      312     2446
##  2     1238     1342       47      266
##  3     1953     2141       62      419
##  4      608      752       73      419
##  5     1653     1815      108      765
##  6     1813     2026       92      569
##  7     1740     2054      352     2586
##  8      834     1031       80      479
##  9     1014     1219      109      708
## 10     1741     2024      135      944
## # ... with 40 more rows
```
…
