Lecture 14: Aggregation and Joins
…
---
# Aggregation
We need specify groups with `group by`.

```r
dbGetQuery(chinook_db, "select albumid, avg(milliseconds) / 60000 as minutes from track
                          group by AlbumId") |> as_tibble()
```

```
## # A tibble: 347 x 2
##    AlbumId minutes
##      <int>   <dbl>
##  1       1    4.00
##  2       2    5.71
##  3       3    4.77
##  4       4    5.11
##  5       5    4.90
##  6       6    4.42
##  7       7    4.51
##  8       8    3.46
##  9       9    5.57
## 10      10    4.68
## # ... with 337 more rows
```
…
